
running 0 tests

test result: ok. 0 passed; 0 failed; 0 ignored; 0 measured; 0 filtered out; finished in 0.00s


running 1 test
test universe_ticks ... bench:      84,028 ns/iter (+/- 79,685)

test result: ok. 0 passed; 0 failed; 0 ignored; 1 measured; 0 filtered out; finished in 0.58s

